{
  "project_info": {
    "project_number": "1012393308466",
    "firebase_url": "https://signid-3c439.firebaseio.com",
    "project_id": "signid-3c439",
    "storage_bucket": "signid-3c439.appspot.com"
  },
  "client": [
    {
      "client_info": {
        "mobilesdk_app_id": "1:1012393308466:android:66114574a6b51586",
        "android_client_info": {
          "package_name": "com.app.signidapp"
        }
      },
      "oauth_client": [
        {
          "client_id": "1012393308466-u25icgsd9la070tu0tkh0uasg8skrk6v.apps.googleusercontent.com",
          "client_type": 1,
          "android_info": {
            "package_name": "com.app.signidapp",
            "certificate_hash": "a1f820bef787f5e318418554bcf47e1db5df5f2e"
          }
        },
        {
          "client_id": "1012393308466-i2k9osa7toc61p1u39258eatj4rg0k6k.apps.googleusercontent.com",
          "client_type": 1,
          "android_info": {
            "package_name": "com.app.signidapp",
            "certificate_hash": "c21fad0e4248050ad5a86ac9ede0c5fa761ff55e"
          }
        },
        {
          "client_id": "1012393308466-6m8jf1o3s9g3qto31k5apmkec7r3tg4u.apps.googleusercontent.com",
          "client_type": 3
        }
      ],
      "api_key": [
        {
          "current_key": "AIzaSyBGleC46_FjTO0BrEk73v4cbWMtfONiWo0"
        }
      ],
      "services": {
        "analytics_service": {
          "status": 1
        },
        "appinvite_service": {
          "status": 2,
          "other_platform_oauth_client": [
            {
              "client_id": "1012393308466-6m8jf1o3s9g3qto31k5apmkec7r3tg4u.apps.googleusercontent.com",
              "client_type": 3
            }
          ]
        },
        "ads_service": {
          "status": 2
        }
      }
    }
  ],
  "configuration_version": "1"
}